…
#>   g49 = col_character(),
#>   h49 = col_character(),
#>   i47 = col_character(),
#>   j47 = col_character(),
#>   k47 = col_character(),
#>   l47 = col_character(),
#>   m47 = col_character(),
#>   n47 = col_character(),
#>   o47 = col_character(),
#>   p47 = col_character(),
#>   q47 = col_character(),
#>   r47 = col_character(),
#>   s47 = col_character()
#> )
#> # A tibble: 49 x 19
#>    a46    b46   c49   d47   e47   f47   g49   h49   i47   j47   k47   l47  
#>    <chr>  <chr> <chr> <chr> <chr> <chr> <chr> <chr> <chr> <chr> <chr> <chr>
#>  1 Poder  Exec~ Exec~ Exec~ Exec~ Exec~ Exec~ Exec~ Exec~ Exec~ Exec~ Exec~
#>  2 Grupo  OUTR~ OUTR~ INVE~ INVE~ INVE~ OUTR~ OUTR~ OUTR~ OUTR~ OUTR~ OUTR~
#>  3 Modal~ APLI~ APLI~ APLI~ APLI~ APLI~ APLI~ APLI~ APLI~ APLI~ APLI~ APLI~
#>  4 Eleme~ 30    39    51    51    51    39    39    93    39    39    39   
#>  5 NomeE~ MATE~ OUTR~ OBRA~ OBRA~ OBRA~ OUTR~ OUTR~ INDE~ OUTR~ OUTR~ OUTR~
#>  6 SubEl~ 27    48    01    01    01    48    48    02    04    04    04   
#>  7 NomeS~ "MAT~ SERV~ EXEC~ EXEC~ EXEC~ SERV~ SERV~ OUTR~ SERV~ SERV~ SERV~
#>  8 Orgao  4351  1600  2400  2400  2400  1600  1600  1600  4352  4352  4352 
#>  9 NomeO~ "Com~ Secr~ Secr~ Secr~ Secr~ Secr~ Secr~ Secr~ "Com~ "Com~ "Com~
#> 10 UO     4351  1601  2401  2401  2401  1601  1601  1601  4352  4352  4352 
#> # ... with 39 more rows, and 7 more variables: m47 <chr>, n47 <chr>,
#> #   o47 <chr>, p47 <chr>, q47 <chr>, r47 <chr>, s47 <chr>
…
