…
Classes das colunas

``` r
df_despesas %>% map_chr(class)%>%table
#> .
#>    Date  factor numeric 
#>       1      31      13
```

Cardinalidade

``` r
df_despesas %>% get_card_fact
#> # A tibble: 31 x 2
#>    colname           unicos
#>    <chr>              <int>
#>  1 Historico          99057
#>  2 Processo           60886
#>  3 EmpenhoExercicio   20674
#>  4 ObjetoContrato     15396
#>  5 Credor             14315
#>  6 NomeCredor         14083
#>  7 NomeAcao             808
#>  8 ContaCorrente        588
#>  9 NomeContaCorrente    504
#> 10 NomeSubElemento      463
#> # … with 21 more rows
```
…
